waveform.vcd
$version Generated by VerilatedVcd $end
$date Wed Aug 24 18:23:56 2022
 $end
$timescale   1ns $end

 $scope module TOP $end
  $var wire 32 c A [31:0] $end
  $var wire 32 [ Din [31:0] $end
  $var wire 32 k Dout [31:0] $end
  $var wire  1 S clock $end
  $var wire  1 K halt $end
  $var wire  1 C reset $end
  $scope module cpu $end
   $var wire 32 c A [31:0] $end
   $var wire 32 [ Din [31:0] $end
   $var wire 32 k Dout [31:0] $end
   $var wire 32 + addr_reg [31:0] $end
   $var wire  1 S clock $end
   $var wire  1 K halt $end
   $var wire 32 3 instr_reg [31:0] $end
   $var wire 32 # pc [31:0] $end
   $var wire  5 -! reg_ain [4:0] $end
   $var wire 32 %! reg_din [31:0] $end
   $var wire 32 ; reg_dout [31:0] $end
   $var wire  1 s reg_enable $end
   $var wire  1 { reg_rw $end
   $var wire  1 C reset $end
   $scope module register_bank $end
    $var wire 32 5! N [31:0] $end
    $var wire  5 -! ain [4:0] $end
    $var wire  1 S clock $end
    $var wire 32 %! din [31:0] $end
    $var wire 32 ; dout [31:0] $end
    $var wire  1 s enable $end
    $var wire 32 =! r(0) [31:0] $end
    $var wire 32 >! r(1) [31:0] $end
    $var wire 32 G! r(10) [31:0] $end
    $var wire 32 H! r(11) [31:0] $end
    $var wire 32 I! r(12) [31:0] $end
    $var wire 32 J! r(13) [31:0] $end
    $var wire 32 K! r(14) [31:0] $end
    $var wire 32 L! r(15) [31:0] $end
    $var wire 32 M! r(16) [31:0] $end
    $var wire 32 N! r(17) [31:0] $end
    $var wire 32 O! r(18) [31:0] $end
    $var wire 32 P! r(19) [31:0] $end
    $var wire 32 ?! r(2) [31:0] $end
    $var wire 32 Q! r(20) [31:0] $end
    $var wire 32 R! r(21) [31:0] $end
    $var wire 32 S! r(22) [31:0] $end
    $var wire 32 T! r(23) [31:0] $end
    $var wire 32 U! r(24) [31:0] $end
    $var wire 32 V! r(25) [31:0] $end
    $var wire 32 W! r(26) [31:0] $end
    $var wire 32 X! r(27) [31:0] $end
    $var wire 32 Y! r(28) [31:0] $end
    $var wire 32 Z! r(29) [31:0] $end
    $var wire 32 @! r(3) [31:0] $end
    $var wire 32 [! r(30) [31:0] $end
    $var wire 32 \! r(31) [31:0] $end
    $var wire 32 A! r(4) [31:0] $end
    $var wire 32 B! r(5) [31:0] $end
    $var wire 32 C! r(6) [31:0] $end
    $var wire 32 D! r(7) [31:0] $end
    $var wire 32 E! r(8) [31:0] $end
    $var wire 32 F! r(9) [31:0] $end
    $var wire  1 { rw $end
   $upscope $end
  $upscope $end
 $upscope $end
$enddefinitions $end


#0
b00001000000011101010100001110011 #
b11011110111001000011100011101011 +
b10000000100110101000010000011001 3
b00101101101001001100010000001111 ;
1C
0K
1S
b01100000001001010100011010010001 [
b10001001010010000100110010001011 c
b01001101001010001111001011111000 k
0s
1{
b00110101011110011110001111000110 %!
b00101 -!
b00000000000000000000000000100000 5!
b10110001111100111111101001011111 =!
b00100100110011000011100100111101 >!
b11011101100110011000111001000001 ?!
b00010101001100111000001111011111 @!
b10010110111010011010001001011000 A!
b00011101011000111011011000100111 B!
b01011010011001101101001011011110 C!
b10101101000011100111100100110011 D!
b10010000111110001110010001011010 E!
b11100100110001100100111010110001 F!
b00110101101101111100101000101111 G!
b10000100011011111010000010100010 H!
b00011010001111001101110011101100 I!
b10010110100000101010000010011001 J!
b00010100101000101010010100001001 K!
b10110000100011001001101010001101 L!
b01111001001111100111001100001000 M!
b10101110101100011001011101100101 N!
b00101010001010111111101101010011 O!
b01001010111111001100110010011000 P!
b00110111110011110010000110110011 Q!
b11011111111110011011001101101101 R!
b01101001001111011101101110101010 S!
b11011110001000001101100111000000 T!
b00111100100110100000111110010100 U!
b11110010010111111011101001111000 V!
b01010000100101001001100110000111 W!
b01111011000000001101000110110011 X!
b00100101100001000011110000001100 Y!
b01111010100011000001110011101000 Z!
b10110100000111110001000100000111 [!
b00101100100100000010101011010001 \!
#1
0S
#2
b00001000000011101010100001110111 #
b00001000000011101010100001110011 +
b00000000000000000000000000001100 3
0C
1S
b00000000000000000000000000001100 [
b00001000000011101010100001110011 c
#3
0S
#4
b00001000000011101010100001111011 #
b00001000000011101010100001110111 +
1S
b00001000000011101010100001110111 c
#5
0S
#6
b00001000000011101010100001111111 #
b00001000000011101010100001111011 +
1S
b00001000000011101010100001111011 c
#7
0S
#8
b00001000000011101010100010000011 #
b00001000000011101010100001111111 +
1S
b00001000000011101010100001111111 c
#9
0S
#10
b00001000000011101010100010000111 #
b00001000000011101010100010000011 +
1S
b00001000000011101010100010000011 c
#11
0S
#12
b00001000000011101010100010001011 #
b00001000000011101010100010000111 +
1S
b00001000000011101010100010000111 c
#13
0S
#14
b00001000000011101010100010001111 #
b00001000000011101010100010001011 +
1S
b00001000000011101010100010001011 c
#15
0S
#16
b00001000000011101010100010010011 #
b00001000000011101010100010001111 +
1S
b00001000000011101010100010001111 c
#17
0S
#18
b00001000000011101010100010010111 #
b00001000000011101010100010010011 +
1S
b00001000000011101010100010010011 c
